{
  "version": 2,
  "exports": {
    "Parliament.Dependencies/1.0.0": {
      "type": "project",
      "framework": ".NETFramework,Version=v4.5.2",
      "compile": {
        "bin/Debug/Parliament.Dependencies.dll": {}
      },
      "runtime": {
        "../packages/CommonServiceLocator.1.3/lib/portable-net4+sl5+netcore45+wpa81+wp8/Microsoft.Practices.ServiceLocation.dll": {},
        "../packages/EnterpriseLibrary.Common.6.0.1304.0/lib/NET45/Microsoft.Practices.EnterpriseLibrary.Common.dll": {},
        "../packages/EnterpriseLibrary.ExceptionHandling.6.0.1304.0/lib/NET45/Microsoft.Practices.EnterpriseLibrary.ExceptionHandling.dll": {},
        "../packages/EnterpriseLibrary.PolicyInjection.6.0.1304.0/lib/NET45/Microsoft.Practices.EnterpriseLibrary.PolicyInjection.dll": {},
        "../packages/EnterpriseLibrary.SemanticLogging.2.0.1406.1/lib/net45/Microsoft.Practices.EnterpriseLibrary.SemanticLogging.dll": {},
        "../packages/EnterpriseLibrary.SemanticLogging.TextFile.2.0.1406.1/lib/net45/Microsoft.Practices.EnterpriseLibrary.SemanticLogging.TextFile.dll": {},
        "../packages/EnterpriseLibrary.Validation.6.0.1304.0/lib/NET45/Microsoft.Practices.EnterpriseLibrary.Validation.dll": {},
        "../packages/EntityFramework.6.1.3/lib/net45/EntityFramework.SqlServer.dll": {},
        "../packages/EntityFramework.6.1.3/lib/net45/EntityFramework.dll": {},
        "../packages/Newtonsoft.Json.9.0.1/lib/net45/Newtonsoft.Json.dll": {},
        "../packages/Unity.3.5.1404.0/lib/net45/Microsoft.Practices.Unity.Configuration.dll": {},
        "../packages/Unity.3.5.1404.0/lib/net45/Microsoft.Practices.Unity.RegistrationByConvention.dll": {},
        "../packages/Unity.3.5.1404.0/lib/net45/Microsoft.Practices.Unity.dll": {},
        "../packages/Unity.Interception.3.5.1404.0/lib/Net45/Microsoft.Practices.Unity.Interception.Configuration.dll": {},
        "../packages/Unity.Interception.3.5.1404.0/lib/Net45/Microsoft.Practices.Unity.Interception.dll": {},
        "bin/Debug/Parliament.Dependencies.dll": {}
      },
      "contentFiles": {
        "bin/Debug/Parliament.Dependencies.pdb": {
          "buildAction": "None",
          "codeLanguage": "any",
          "copyToOutput": true
        }
      }
    },
    "Parliament.Dto/1.0.0": {
      "type": "project",
      "framework": ".NETFramework,Version=v4.5.2",
      "compile": {
        "bin/Debug/Parliament.DTO.dll": {}
      },
      "runtime": {
        "bin/Debug/Parliament.DTO.dll": {}
      },
      "contentFiles": {
        "bin/Debug/Parliament.DTO.pdb": {
          "buildAction": "None",
          "codeLanguage": "any",
          "copyToOutput": true
        }
      }
    },
    "Parliament.Service.Impl/1.0.0": {
      "type": "project",
      "framework": ".NETFramework,Version=v4.5.2",
      "compile": {
        "bin/Debug/Parliament.Service.Impl.dll": {}
      },
      "runtime": {
        "../packages/CommonServiceLocator.1.3/lib/portable-net4+sl5+netcore45+wpa81+wp8/Microsoft.Practices.ServiceLocation.dll": {},
        "../packages/EnterpriseLibrary.Common.6.0.1304.0/lib/NET45/Microsoft.Practices.EnterpriseLibrary.Common.dll": {},
        "../packages/Unity.3.5.1404.0/lib/net45/Microsoft.Practices.Unity.Configuration.dll": {},
        "../packages/Unity.3.5.1404.0/lib/net45/Microsoft.Practices.Unity.RegistrationByConvention.dll": {},
        "../packages/Unity.3.5.1404.0/lib/net45/Microsoft.Practices.Unity.dll": {},
        "../packages/Unity.Interception.3.5.1404.0/lib/Net45/Microsoft.Practices.Unity.Interception.Configuration.dll": {},
        "../packages/Unity.Interception.3.5.1404.0/lib/Net45/Microsoft.Practices.Unity.Interception.dll": {},
        "bin/Debug/Parliament.Service.Impl.dll": {}
      },
      "contentFiles": {
        "bin/Debug/Parliament.Service.Impl.pdb": {
          "buildAction": "None",
          "codeLanguage": "any",
          "copyToOutput": true
        }
      }
    },
    "Parliament.Service/1.0.0": {
      "type": "project",
      "framework": ".NETFramework,Version=v4.5.2",
      "compile": {
        "bin/Debug/Parliament.Service.dll": {}
      },
      "runtime": {
        "../packages/CommonServiceLocator.1.3/lib/portable-net4+sl5+netcore45+wpa81+wp8/Microsoft.Practices.ServiceLocation.dll": {},
        "../packages/EnterpriseLibrary.Common.6.0.1304.0/lib/NET45/Microsoft.Practices.EnterpriseLibrary.Common.dll": {},
        "../packages/EnterpriseLibrary.Validation.6.0.1304.0/lib/NET45/Microsoft.Practices.EnterpriseLibrary.Validation.dll": {},
        "bin/Debug/Parliament.Service.dll": {}
      },
      "contentFiles": {
        "bin/Debug/Parliament.Service.pdb": {
          "buildAction": "None",
          "codeLanguage": "any",
          "copyToOutput": true
        }
      }
    },
    "Parliament.Exceptions/1.0.0": {
      "type": "project",
      "framework": ".NETFramework,Version=v4.5.2",
      "compile": {
        "bin/Debug/Parliament.Exceptions.dll": {}
      },
      "runtime": {
        "bin/Debug/Parliament.Exceptions.dll": {}
      },
      "contentFiles": {
        "bin/Debug/Parliament.Exceptions.pdb": {
          "buildAction": "None",
          "codeLanguage": "any",
          "copyToOutput": true
        }
      }
    },
    "Parliament.Model/1.0.0": {
      "type": "project",
      "framework": ".NETFramework,Version=v4.5.2",
      "compile": {
        "bin/Debug/Parliament.Model.dll": {}
      },
      "runtime": {
        "bin/Debug/Parliament.Model.dll": {}
      },
      "contentFiles": {
        "bin/Debug/Parliament.Model.pdb": {
          "buildAction": "None",
          "codeLanguage": "any",
          "copyToOutput": true
        }
      }
    },
    "Parliament.Repository/1.0.0": {
      "type": "project",
      "framework": ".NETFramework,Version=v4.5.2",
      "compile": {
        "bin/Debug/Parliament.Repository.dll": {}
      },
      "runtime": {
        "bin/Debug/Parliament.Repository.dll": {}
      },
      "contentFiles": {
        "bin/Debug/Parliament.Repository.pdb": {
          "buildAction": "None",
          "codeLanguage": "any",
          "copyToOutput": true
        }
      }
    },
    "Parliament.Repository.EntityFramework/1.0.0": {
      "type": "project",
      "framework": ".NETFramework,Version=v4.5.2",
      "compile": {
        "bin/Debug/Parliament.Repository.EntityFramework.dll": {}
      },
      "runtime": {
        "../packages/EntityFramework.6.1.3/lib/net45/EntityFramework.SqlServer.dll": {},
        "../packages/EntityFramework.6.1.3/lib/net45/EntityFramework.dll": {},
        "bin/Debug/Parliament.Repository.EntityFramework.dll": {}
      },
      "contentFiles": {
        "bin/Debug/Parliament.Repository.EntityFramework.pdb": {
          "buildAction": "None",
          "codeLanguage": "any",
          "copyToOutput": true
        }
      }
    },
    "Parliament.Utils/1.0.0": {
      "type": "project",
      "framework": ".NETFramework,Version=v4.5.2",
      "compile": {
        "bin/Debug/Parliament.Utils.dll": {}
      },
      "runtime": {
        "../packages/EnterpriseLibrary.Common.6.0.1304.0/lib/NET45/Microsoft.Practices.EnterpriseLibrary.Common.dll": {},
        "../packages/EnterpriseLibrary.Validation.6.0.1304.0/lib/NET45/Microsoft.Practices.EnterpriseLibrary.Validation.dll": {},
        "bin/Debug/Parliament.Utils.dll": {}
      },
      "contentFiles": {
        "bin/Debug/Parliament.Utils.pdb": {
          "buildAction": "None",
          "codeLanguage": "any",
          "copyToOutput": true
        }
      }
    }
  }
}